Reproducible Research: Peer Assessment 1
…
To determine the number of steps taken on each day, group the data frame by date and sum up the number of steps in each group (i.e., for each day). Then histogram the total steps.

But first, notice that there are some days with quite a few missing values (indicated by steps = NA). It turns out that there ~13% of the step values are NAs:

percent_missing <- mean(is.na(dat$steps)) * 100

To see if these NA values are clustered around certain days, we can arrange the dates by the percentage of intervals that have NA steps:

percent_missing_by_day <- dat %>% group_by(date) %>% 
                          summarize(percent.NA = mean(is.na(steps))) %>%
                          arrange(desc(percent.NA))
print(percent_missing_by_day)

## # A tibble: 61 x 2
##    date       percent.NA
##    <chr>           <dbl>
##  1 2012-10-01          1
##  2 2012-10-08          1
##  3 2012-11-01          1
##  4 2012-11-04          1
##  5 2012-11-09          1
##  6 2012-11-10          1
##  7 2012-11-14          1
##  8 2012-11-30          1
##  9 2012-10-02          0
## 10 2012-10-03          0
## #  with 51 more rows
…
